EDI_SCCHG_20160314
TableName	Actflag	Created	Changed	ScChgID	SecID	ISIN	DateofChange	SecOldName	SecNewName	EventType	OldSectyCD	NewSectyCD	OldRegS144A	NewRegS144A	Notes
SCCHG	I	2016/03/12	2016/03/14	521509	2740162	CA05518XAC52	2011/06/04	FR BD REDEEM 03/06/2016 CAD	FR BD REDEEM 03/06/2016 CAD 100	CORR					
SCCHG	I	2016/03/12	2016/03/14	521510	4718160	US3133EFL629	2016/03/12	0.98% BD REDEEM 14/12/2017 USD	0.98% BD REDEEM 14/12/2017 USD 1000	CORR					
SCCHG	I	2016/03/12	2016/03/14	521511	4718164	US3133EFL884	2016/03/12	FR BD REDEEM 14/09/2017 USD - 3133EFL88	FR BD REDEEM 14/09/2017 USD 1000 - 3133EFL88	CORR					
SCCHG	I	2016/03/12	2016/03/14	521512	4724304	US421924BT72	2016/03/07	5.75% NT REDEEM 15/09/2025 USD	5.75% NT REDEEM 15/09/2025 USD 2000	CORR					
SCCHG	I	2016/03/12	2016/03/14	521513	4720897	US3133EFM387	2016/03/12	2.23% BD REDEEM 14/03/2023 USD	2.23% BD REDEEM 14/03/2023 USD 1000	CORR					
SCCHG	I	2016/03/12	2016/03/14	521514	4720899	US3133EFM460	2016/03/12	3.12% BD REDEEM 14/03/2031 USD	3.12% BD REDEEM 14/03/2031 USD 1000	CORR					
SCCHG	I	2016/03/12	2016/03/14	521515	4713616	US3130A7FJ95	2016/03/12	0.896% BD REDEEM 15/02/2019 USD	0.896% BD REDEEM 15/02/2019 USD 10000	CORR					
SCCHG	I	2016/03/12	2016/03/14	521516	4723078	US3130A7JL06	2016/03/12	0.76% BD REDEEM 05/05/2017 USD	0.76% BD REDEEM 05/05/2017 USD 10000	CORR					
SCCHG	I	2016/03/12	2016/03/14	521517	656482	CA05534RAB02	1991/11/24	10.30% BD REDEEM 30/09/2016 CAD	10.30% BD REDEEM 30/09/2016 CAD 1000	CORR					
SCCHG	I	2016/03/12	2016/03/14	521518	4723081	US3130A7JM88	2016/03/12	1.10% BD REDEEM 15/02/2019 USD	1.10% BD REDEEM 15/02/2019 USD 10000	CORR					
SCCHG	I	2016/03/12	2016/03/14	521519	4717406	US3130A7GP47	2016/03/12	FR BD REDEEM 11/09/2017 USD - 3130A7GP4	FR BD REDEEM 11/09/2017 USD 10000 - 3130A7GP4	CORR					
SCCHG	I	2016/03/12	2016/03/14	521520	4718173	US3130A7H998	2016/03/12	FR BD REDEEM 11/09/2017 USD - 3130A7H99	FR BD REDEEM 11/09/2017 USD 10000 - 3130A7H99	CORR					
SCCHG	I	2016/03/12	2016/03/14	521521	4724346	US3134G8RT89	2016/03/11	SU NT REDEEM 28/04/2021 USD	SU NT REDEEM 28/04/2021 USD 1000	CORR					
SCCHG	I	2016/03/12	2016/03/14	521522	4724346	US3134G8RT89	2016/03/12	SU NT REDEEM 28/04/2021 USD 1000	SU MTN REDEEM 28/04/2021 USD 1000						
SCCHG	I	2016/03/12	2016/03/14	521523	4721072	XS0995416103	2013/11/22	ZC MTN REDEEM 23/11/2016 USD 1	ZC MTN REDEEM 23/11/2016 USD 5000	CORR					
SCCHG	I	2016/03/12	2016/03/14	521524	4724369	MT3100013643	2016/03/11	ZC TBILL REDEEM 09/06/2016 EUR - 91 Days	ZC TBILL REDEEM 09/06/2016 EUR 50000 - 91 Days	CORR					
SCCHG	I	2016/03/12	2016/03/14	521525	4724371	MT3200012024	2016/03/11	ZC TBILL REDEEM 07/09/2016 EUR	ZC TBILL REDEEM 07/09/2016 EUR 50000	CORR					
SCCHG	I	2016/03/12	2016/03/14	521526	4715310	US22546VXJ06	2016/03/03	FR MTN REDEEM 03/03/2021 USD	FR MTN REDEEM 03/03/2021 USD 1000	CORR					
SCCHG	I	2016/03/12	2016/03/14	521527	4724293	US3134G8RL53	2016/03/11	0.94% NT REDEEM 29/09/2017 USD - 3134G8RL5	0.94% NT REDEEM 29/09/2017 USD 1000 - 3134G8RL5	CORR					
SCCHG	I	2016/03/12	2016/03/14	521528	4724293	US3134G8RL53	2016/03/12	0.94% NT REDEEM 29/09/2017 USD 1000 - 3134G8RL5	0.94% MTN REDEEM 29/09/2017 USD 1000 - 3134G8RL5						
SCCHG	I	2016/03/12	2016/03/14	521529	4724344	US3134G8RR24	2016/03/11	SU NT REDEEM 30/03/2021 USD - 3134G8RR2	SU NT REDEEM 30/03/2021 USD 1000 - 3134G8RR2	CORR					
SCCHG	I	2016/03/12	2016/03/14	521530	4724344	US3134G8RR24	2016/03/12	SU NT REDEEM 30/03/2021 USD 1000 - 3134G8RR2	SU MTN REDEEM 30/03/2021 USD 1000 - 3134G8RR2						
SCCHG	I	2016/03/12	2016/03/14	521531	4238747	XS1055121989	2014/04/11	ZC MTN REDEEM 12/04/2016 USD 1	ZC MTN REDEEM 12/04/2016 USD 5000	CORR					
SCCHG	I	2016/03/12	2016/03/14	521532	4723692	DE000RLP0744	2016/03/10	ZC NT REDEEM 18/03/2019 EUR 1	ZC NT REDEEM 18/03/2019 EUR 1000	CORR					
SCCHG	I	2016/03/12	2016/03/14	521533	4718018		2016/03/02	4% CP REDEEM 03/03/2017 CNY	4% CP REDEEM 03/03/2017 CNY 100	CORR					
SCCHG	I	2016/03/12	2016/03/14	521534	4718919		2016/03/02	6.30% CP REDEEM 04/03/2017 CNY	6.30% CP REDEEM 04/03/2017 CNY 100	CORR					
SCCHG	I	2016/03/12	2016/03/14	521535	760016	CA063671BH32	2005/12/16	8.25% BD REDEEM 15/12/2037 CAD	8.25% BD REDEEM 15/12/2037 CAD 1000	CORR					
SCCHG	I	2016/03/12	2016/03/14	521536	4718859		2016/03/03	2.59% CP REDEEM 31/08/2016 CNY	2.59% CP REDEEM 31/08/2016 CNY 100	CORR					
SCCHG	I	2016/03/12	2016/03/14	521537	4724341	US3134G8RJ08	2016/03/11	SU BD REDEEM 30/03/2021 USD	SU BD REDEEM 30/03/2021 USD 1000	CORR					
SCCHG	I	2016/03/12	2016/03/14	521538	4724341	US3134G8RJ08	2016/03/12	SU BD REDEEM 30/03/2021 USD 1000 - 3134G8RJ0	SU MTN REDEEM 30/03/2021 USD 1000 - 3134G8RJ0						
SCCHG	I	2016/03/12	2016/03/14	521539	4718861		2016/03/03	2.94% CP REDEEM 25/07/2016 CNY	2.94% CP REDEEM 25/07/2016 CNY 100	CORR					
SCCHG	I	2016/03/12	2016/03/14	521540	4718014		2016/03/02	2.73% CP REDEEM 28/11/2016 CNY	2.73% CP REDEEM 28/11/2016 CNY 100	CORR					
SCCHG	I	2016/03/12	2016/03/14	521541	3936859	CA05590HAF43	2012/11/28	2.11% NT REDEEM 26/05/2016 CAD	2.11% NT REDEEM 26/05/2016 CAD 1000	CORR					
SCCHG	I	2016/03/12	2016/03/14	521542	4718916		2016/03/02	3.27% CP REDEEM 04/03/2017 CNY	3.27% CP REDEEM 04/03/2017 CNY 100	CORR					
SCCHG	I	2016/03/12	2016/03/14	521543	4687585		2016/01/18	6.20% BD REDEEM 18/01/2021 CNY	6.20% BD REDEEM 18/01/2021 CNY 100	CORR					
SCCHG	I	2016/03/12	2016/03/14	521544	4724301	US3134G8RC54	2016/03/11	SU BD REDEEM 30/03/2021 USD - 3134G8RC5	SU BD REDEEM 30/03/2021 USD 1000 - 3134G8RC5	CORR					
SCCHG	I	2016/03/12	2016/03/14	521545	4724301	US3134G8RC54	2016/03/12	SU BD REDEEM 30/03/2021 USD 1000 - 3134G8RC5	SU MTN REDEEM 30/03/2021 USD 1000 - 3134G8RC5						
SCCHG	I	2016/03/12	2016/03/14	521546	4725432	XS1374463831	2016/03/12	FR BD REDEEM 11/03/2019 GBP 100000	FR CB REDEEM 11/03/2019 GBP 100000						
SCCHG	I	2016/03/12	2016/03/14	521547	4687523		2016/01/18	5.58% BD REDEEM 18/01/2021 CNY	5.58% BD REDEEM 18/01/2021 CNY 100	CORR					
SCCHG	I	2016/03/12	2016/03/14	521548	3936868	CA05590HAG26	2012/11/28	2.39% NT REDEEM 27/11/2017 CAD	2.39% NT REDEEM 27/11/2017 CAD 1000	CORR					
SCCHG	I	2016/03/12	2016/03/14	521549	4723248	US00131MAE30	2016/03/11	4.50% MTN REDEEM 16/03/2046 USD 200000 - 00131MAE3	4.50% MTN REDEEM 16/03/2046 USD 1000 - 00131MAE3	CORR					
SCCHG	I	2016/03/12	2016/03/14	521550	4723244	US00131LAE56	2016/03/11	4.50% MTN REDEEM 16/03/2046 USD 200000 - 144A	4.50% MTN REDEEM 16/03/2046 USD 1000 - 144A	CORR					
SCCHG	I	2016/03/12	2016/03/14	521551	4722028	CA13595Z8Y55	2016/03/11	FR BD REDEEM 13/03/2023 CAD - 13595Z8Y5	FR BD REDEEM 13/03/2023 CAD 100 - 13595Z8Y5	CORR					
SCCHG	I	2016/03/12	2016/03/14	521552	4721992	CA13595Z8X72	2016/03/11	FR BD REDEEM 13/03/2023 CAD	FR BD REDEEM 13/03/2023 CAD 100	CORR					
SCCHG	I	2016/03/12	2016/03/14	521553	4721991	CA13595Z8W99	2016/03/11	ZC BD REDEEM 12/09/2022 CAD	ZC BD REDEEM 12/09/2022 CAD 100	CORR					
SCCHG	I	2016/03/12	2016/03/14	521554	4715310	US22546VXJ06	2016/03/04	FR MTN REDEEM 03/03/2021 USD 1000	FR NT REDEEM 03/03/2021 USD 1000						
SCCHG	I	2016/03/12	2016/03/14	521555	4721993	CA13595Z8Z21	2016/03/11	ZC BD REDEEM 11/03/2022 CAD	ZC BD REDEEM 11/03/2022 CAD 100	CORR					
SCCHG	I	2016/03/12	2016/03/14	521556	4723296	USP2253TJK62	2016/03/11	7.75% NT REDEEM 16/04/2026 USD	7.75% NT REDEEM 16/04/2026 USD 1000	CORR					
SCCHG	I	2016/03/12	2016/03/14	521557	4722047	CA63308ZKZ13	2016/03/11	ZC BD REDEEM 11/03/2022 CAD	ZC BD REDEEM 11/03/2022 CAD 100	CORR					
SCCHG	I	2016/03/12	2016/03/14	521558	4724068	US151290BU60	2016/03/11	7.75% NT REDEEM 16/04/2026 USD - 144A	7.75% NT REDEEM 16/04/2026 USD 1000 - 144A	CORR					
SCCHG	I	2016/03/12	2016/03/14	521559	4720890	CA633067Q896	2016/03/11	ZC BD REDEEM 12/09/2022 CAD	ZC BD REDEEM 12/09/2022 CAD 100	CORR					
SCCHG	I	2016/03/12	2016/03/14	521560	4702261	XS1362984020	2016/03/12	5% MTN REDEEM 15/01/2021 EUR 1000	5.14% MTN REDEEM 15/01/2021 EUR 1000						
SCCHG	I	2016/03/12	2016/03/14	521561	759994	CA063671BF75	1995/12/16	8.25% BD REDEEM 15/12/2031 CAD	8.25% BD REDEEM 15/12/2031 CAD 1000	CORR					
SCCHG	I	2016/03/12	2016/03/14	521562	759993	CA063671BE01	1995/12/16	8.25% BD REDEEM 15/12/2028 CAD	8.25% BD REDEEM 15/12/2028 CAD 1000	CORR					
SCCHG	I	2016/03/12	2016/03/14	521563	4156319	MX94BI000066	2013/12/06	FR BD REDEEM 18/05/2017 MXN 100	FR CD REDEEM 18/05/2017 MXN 100						
SCCHG	I	2016/03/12	2016/03/14	521564	4234296	MX94BI000074	2014/03/28	FR BD REDEEM 07/09/2017 MXN 100	FR CD REDEEM 07/09/2017 MXN 100						
SCCHG	I	2016/03/12	2016/03/14	521565	4717534	US3136G3CX15	2016/03/11	SU BD REDEEM 10/03/2031 USD	SU BD REDEEM 10/03/2031 USD 1000	CORR					
SCCHG	I	2016/03/12	2016/03/14	521566	4663457	ARPENR520100	2015/10/22	FR NT REDEEM 17/03/2016 ARS 1	FR NT REDEEM 17/03/2016 ARS 1000	CORR					
SCCHG	I	2016/03/12	2016/03/14	521567	4144590	XS0996338322	2013/11/17	10.75% NT REDEEM 15/11/2018 USD 200000 - Reg S	10.75% NT REDEEM 15/11/2018 USD 50000 - Reg S	CORR					
SCCHG	I	2016/03/12	2016/03/14	521568	4725465	NZGNEDG001C1	2016/03/10	FR NT REDEEM 18/03/2022 NZD 5000	FR NT REDEEM 18/03/2022 NZD 1	CLEAN					
SCCHG	I	2016/03/12	2016/03/14	521569	4716706	US40433UJP21	2016/03/02	FR MTN REDEEM 15/03/2017 USD	FR NT REDEEM 15/03/2017 USD						
SCCHG	I	2016/03/12	2016/03/14	521570	4716706	US40433UJP21	2016/03/03	FR NT REDEEM 15/03/2017 USD	FR NT REDEEM 15/03/2017 USD 1000	CORR					
SCCHG	I	2016/03/12	2016/03/14	521571	4275290	AU00000SKSG8	2014/06/24	10% NT CONVERT 30/06/2017 AUD	10% NT CONVERT 30/06/2017 AUD 0.35	CORR					
SCCHG	I	2016/03/12	2016/03/14	521572	4721045	XS1377975773	2016/03/07	ZC CP REDEEM 07/06/2016 EUR	ZC CP REDEEM 07/06/2016 EUR 500000	CORR					
SCCHG	I	2016/03/12	2016/03/14	521573	3951230	CA0636795N07	2016/01/15	SU BD REDEEM 27/06/2016 USD	SU BD REDEEM 27/12/2017 USD						
SCCHG	I	2016/03/12	2016/03/14	521574	4012979	CA06367VBB05	2013/04/11	8% BD REDEEM 09/04/2019 CAD	0.80% BD REDEEM 09/04/2019 CAD						
SCCHG	I	2016/03/12	2016/03/14	521575	3952976	CA0636795M24	2016/01/15	SU NT REDEEM 24/06/2016 USD	SU NT REDEEM 24/12/2019 USD						
SCCHG	I	2016/03/12	2016/03/14	521576	4501468	CA06367V8V01	2015/05/03	1.75% NT REDEEM 01/05/2016 CAD 100	1.75% NT REDEEM 01/05/2025 CAD 100						
SCCHG	I	2016/03/12	2016/03/14	521577	4275290	AU00000SKSG8	2014/06/25	10% NT CONVERT 30/06/2017 AUD 0.35	10% NT CONVERT 30/06/2017 USD 0.35						
SCCHG	I	2016/03/12	2016/03/14	521578	4709568	XS1273394145	2016/03/05	ZC MTN REDEEM 04/03/2021 USD 10000	ZC MTN REDEEM 04/03/2021 USD 100000	CORR					
SCCHG	I	2016/03/12	2016/03/14	521579	4723075	US3134G8QQ59	2016/03/11	SU NT REDEEM 30/03/2021 USD 1000 - 3134G8QQ5	SU MTN REDEEM 30/03/2021 USD 1000 - 3134G8QQ5						
SCCHG	I	2016/03/12	2016/03/14	521580	4722280	US3134G8QP76	2016/03/10	1.15% BD REDEEM 28/06/2018 USD 1000	1.15% MTN REDEEM 28/06/2018 USD 1000						
SCCHG	I	2016/03/12	2016/03/14	521581	4718835	XS1377682676	2016/03/11	1.875% MTN REDEEM 11/11/2024 EUR 100000	1.875% NT REDEEM 11/11/2024 EUR 100000						
SCCHG	I	2016/03/12	2016/03/14	521582	4212720	CA891145L930	2016/03/11	1.90% BD REDEEM 20/03/2016 USD 100	1.90% BD REDEEM 20/09/2016 USD 100						
SCCHG	I	2016/03/12	2016/03/14	521583	4283293	CA891145R630	2016/03/11	FR BD REDEEM 23/03/2016 CAD 100 - 891145R63	FR BD REDEEM 23/06/2016 CAD 100 - 891145R63						
SCCHG	I	2016/03/12	2016/03/14	521584	4459427	CA8911453U67	2016/03/11	SU BD REDEEM 24/03/2016 USD	SU BD REDEEM 24/09/2016 USD						
SCCHG	I	2016/03/12	2016/03/14	521585	4398855	CA8911452J22	2016/03/11	FR BD REDEEM 23/03/2016 CAD 100	FR BD REDEEM 23/06/2016 CAD 100						
SCCHG	I	2016/03/12	2016/03/14	521586	3995142	CA891145YE89	2016/03/11	SU NT REDEEM 22/03/2016 CAD	SU NT REDEEM 22/09/2016 CAD						
SCCHG	I	2016/03/12	2016/03/14	521587	4457541	CA8911453S12	2016/03/11	SU BD REDEEM 19/03/2016 CAD	SU BD REDEEM 19/09/2016 CAD						
SCCHG	I	2016/03/12	2016/03/14	521588	4050616	CA891145ZM96	2016/03/11	FR NT REDEEM 18/03/2016 CAD	FR NT REDEEM 18/06/2016 CAD						
SCCHG	I	2016/03/12	2016/03/14	521598	4722350	CA0641512029	2016/03/11	FXDFR PRF PERPETUAL CAD - Ser 36 (NVCC)	FXDFR PRF PERPETUAL CAD 25 - Ser 36 (NVCC)	CORR					
SCCHG	I	2016/03/12	2016/03/14	521599	4683922	XS1346763458	2016/02/04	ZC MTN REDEEM 03/02/2046 USD 250000	ZC NT REDEEM 03/02/2046 USD 250000						
SCCHG	I	2016/03/12	2016/03/14	521600	4716022	XS1375980197	2016/03/09	0.625% MTN REDEEM 08/03/2021 EUR 100000 - Reg S	0.625% NT REDEEM 08/03/2021 EUR 100000 - Reg S						
SCCHG	I	2016/03/12	2016/03/14	521607	4720392	AU3EC1666181	2016/03/07	ZC CD REDEEM 07/06/2016 AUD - AU3EC1666181	ZC CD REDEEM 07/06/2016 AUD 1000 - AU3EC1666181	CORR					
SCCHG	I	2016/03/12	2016/03/14	521608	4717415	XS1376557721	2016/03/09	FR BD REDEEM 08/03/2019 USD 1000	FR NT REDEEM 08/03/2019 USD 1000						
SCCHG	I	2016/03/12	2016/03/14	521612	4718823	XS1377679961	2016/03/11	1.75% MTN REDEEM 10/03/2026 EUR 100000	1.75% NT REDEEM 10/03/2026 EUR 100000						
SCCHG	I	2016/03/12	2016/03/14	521613	4724485	XS1379865824	2016/03/11	ZC CP REDEEM 09/03/2017 EUR - Ser 2825	ZC CP REDEEM 09/03/2017 EUR 500000 - Ser 2825	CORR					
SCCHG	I	2016/03/12	2016/03/14	521615	4717974	XS1338513648	2016/03/04	8.76% MTN CONVERT 15/09/2017 EUR 1000	0.73% MTN CONVERT 15/09/2017 EUR 1000						
SCCHG	I	2016/03/12	2016/03/14	521617	4717711	XS1377228959	2016/03/12	3.625% MTN REDEEM 10/03/2036 GBP 100000 - Ser 10	3.625% NT REDEEM 10/03/2036 GBP 100000 - Ser 10						
SCCHG	I	2016/03/12	2016/03/14	521619	4719226	XS1377680381	2016/03/11	0.625% BD REDEEM 10/03/2021 EUR 100000	0.625% NT REDEEM 10/03/2021 EUR 100000						
SCCHG	I	2016/03/12	2016/03/14	521624	4715279	XS1355058543	2016/03/11	1% MTN REDEEM 10/03/2026 JPY	0.008% MTN REDEEM 10/03/2026 JPY						
SCCHG	I	2016/03/12	2016/03/14	521629	4718830	XS1377681272	2016/03/11	1.125% MTN REDEEM 10/03/2023 EUR 100000	1.125% NT REDEEM 10/03/2023 EUR 100000						
SCCHG	I	2016/03/12	2016/03/14	521630	4717411	DE000A2AAPF1	2016/03/09	2.75% BD REDEEM 08/03/2021 EUR 1000	2.75% NT REDEEM 08/03/2021 EUR 1000						
SCCHG	I	2016/03/12	2016/03/14	521631	4718187	XS1377237869	2016/03/10	0.375% BD REDEEM 09/03/2023 EUR 100000	0.375% CB REDEEM 09/03/2023 EUR 100000						
SCCHG	I	2016/03/12	2016/03/14	521634	4698101		2016/01/29	6% MTN REDEEM 01/02/2019 CNY	6% MTN REDEEM 01/02/2019 CNY 100	CORR					
SCCHG	I	2016/03/12	2016/03/14	521635	4717633	XS1376671266	2016/03/09	4.65% MTN REDEEM 08/03/2019 CNY 1000000	4.65% NT REDEEM 08/03/2019 CNY 1000000						
SCCHG	I	2016/03/12	2016/03/14	521636	4718862		2016/03/03	2.82% CP REDEEM 29/11/2016 CNY	2.82% CP REDEEM 29/11/2016 CNY 100	CORR					
SCCHG	I	2016/03/12	2016/03/14	521638	4719353	XS1374994280	2016/03/05	1.50% MTN REDEEM 04/03/2031 EUR 100000	1.50% NT REDEEM 04/03/2031 EUR 100000						
SCCHG	I	2016/03/12	2016/03/14	521639	4717240	DE000A2AAL23	2016/03/10	0.50% BD REDEEM 09/09/2019 EUR 1000	0.50% NT REDEEM 09/09/2019 EUR 1000						
SCCHG	I	2016/03/12	2016/03/14	521640	4525310	FR0012657393	2015/06/03	FR BD REDEEM 10/07/2023 EUR	FR BD REDEEM 10/07/2023 EUR 1000	CORR					
SCCHG	I	2016/03/12	2016/03/14	521641	4525310	FR0012657393	2015/06/04	FR BD REDEEM 10/07/2023 EUR 1000	FR MTN REDEEM 10/07/2023 EUR 1000						
SCCHG	I	2016/03/12	2016/03/14	521642	4720744		2016/03/03	3.94% CP REDEEM 02/12/2016 CNY	3.94% CP REDEEM 02/12/2016 CNY 100	CORR					
SCCHG	I	2016/03/12	2016/03/14	521643	4719109	XS1377695652	2016/03/11	0.375% BD REDEEM 10/03/2020 EUR 100000	0.375% NT REDEEM 10/03/2020 EUR 100000						
SCCHG	I	2016/03/12	2016/03/14	521644	4699572		2016/02/01	4.75% MTN REDEEM 03/02/2021 CNY	4.75% MTN REDEEM 03/02/2021 CNY 100	CORR					
SCCHG	I	2016/03/12	2016/03/14	521646	4697205		2016/01/28	5% MTN REDEEM 29/01/2021 CNY	5% MTN REDEEM 29/01/2021 CNY 100	CORR					
SCCHG	I	2016/03/12	2016/03/14	521647	4716591	DE000A2AAL31	2016/03/10	1.50% MTN REDEEM 09/03/2026 EUR 1000	1.50% NT REDEEM 09/03/2026 EUR 1000						
SCCHG	I	2016/03/12	2016/03/14	521648	4718167	XS1377248635	2016/03/10	1.50% BD REDEEM 09/04/2021 EUR 1000	1.50% NT REDEEM 09/04/2021 EUR 1000						
SCCHG	I	2016/03/12	2016/03/14	521649	4719152	XS1377745937	2016/03/11	1.75% BD REDEEM 25/09/2024 EUR 1000	1.75% NT REDEEM 25/09/2024 EUR 1000						
SCCHG	I	2016/03/12	2016/03/14	521650	4692151	BRSIIIDBS016	2016/01/06	FR DB REDEEM 06/07/2016 BRL - Ser 2	FR DB REDEEM 06/07/2016 BRL 1000 - Ser 2	CORR					
SCCHG	I	2016/03/12	2016/03/14	521651	4714502	XS1374344403	2016/03/12	FR CB REDEEM 11/03/2019 USD 100000 - Reg S	FR CB REDEEM 11/03/2019 GBP 100000 - Reg S						
SCCHG	I	2016/03/12	2016/03/14	521652	4710199	XS1371969483	2016/03/02	1.125% MTN REDEEM 01/03/2023 EUR 1000	1.125% NT REDEEM 01/03/2023 EUR 1000						
SCCHG	I	2016/03/12	2016/03/14	521653	4710199	XS1371969483	2016/03/03	1.125% NT REDEEM 01/03/2023 EUR 1000	1.125% NT REDEEM 01/03/2023 EUR 100000	CORR					
SCCHG	I	2016/03/12	2016/03/14	521654	4713437	XS1355060952	2016/03/09	FR MTN REDEEM 08/03/2023 CZK 100000	FR MTN REDEEM 08/03/2023 CZK 3000000	CORR					
SCCHG	I	2016/03/12	2016/03/14	521655	4671120	BRBRMLDBS068	2016/01/15	FR DB REDEEM 15/01/2019 BRL	FR DB REDEEM 15/01/2019 BRL 1000	CORR					
SCCHG	I	2016/03/12	2016/03/14	521656	4709654	XS1317192133	2016/03/04	FR BD REDEEM 05/03/2018 USD 1000	FR NT REDEEM 05/03/2018 USD 1000						
SCCHG	I	2016/03/12	2016/03/14	521657	3888942	KR6000118218	2012/01/28	3.91% BD REDEEM 27/01/2017 KRW	3.91% BD REDEEM 27/01/2017 KRW 10000	CORR					
SCCHG	I	2016/03/12	2016/03/14	521658	4719219	XS1265942919	2016/03/05	FR MTN REDEEM 04/03/2024 EUR 100000	FR NT REDEEM 04/03/2024 EUR 100000						
SCCHG	I	2016/03/12	2016/03/14	521659	4705341	XS1366707195	2016/03/08	2.06% MTN REDEEM 07/03/2036 EUR 100000	2.06% NT REDEEM 07/03/2036 EUR 100000						
SCCHG	I	2016/03/12	2016/03/14	521660	4716039	XS1376268881	2016/03/12	ZC MTN REDEEM 11/03/2031 USD 1000	ZC MTN REDEEM 11/03/2031 USD 1000000	CORR					
SCCHG	I	2016/03/12	2016/03/14	521661	4518155	NO0010735707	2015/05/22	FR BD PERPETUAL NOK - NO0010735707	FR BD PERPETUAL NOK 100000 - NO0010735707	CORR					
SCCHG	I	2016/03/12	2016/03/14	521662	4719149	XS1377763161	2016/03/11	1% BD REDEEM 07/10/2021 EUR 1000	1% NT REDEEM 07/10/2021 EUR 1000						
SCCHG	I	2016/03/12	2016/03/14	521663	4689432	BRCPCCDBS045	2016/01/29	FR DB REDEEM 29/01/2019 BRL 1000000	FR DB REDEEM 29/01/2019 BRL 10000	CORR					
SCCHG	I	2016/03/12	2016/03/14	521664	4710325	XS1372163888	2016/03/05	2.53% MTN REDEEM 04/03/2019 RON 500000	2.53% NT REDEEM 04/03/2019 RON 500000						
SCCHG	I	2016/03/12	2016/03/14	521665	4552803	FR0012830925	2015/07/03	FR BD REDEEM 03/07/2025 EUR	FR BD REDEEM 03/07/2025 EUR 100000	CORR					
SCCHG	I	2016/03/12	2016/03/14	521666	4552803	FR0012830925	2015/07/04	FR BD REDEEM 03/07/2025 EUR 100000	FR MTN REDEEM 03/07/2025 EUR 100000						
SCCHG	I	2016/03/12	2016/03/14	521667	4719057	XS1377696627	2016/03/12	FR BD REDEEM 11/03/2019 GBP 100000 - Ser CBL10	FR CB REDEEM 11/03/2019 GBP 100000 - Ser CBL10						
SCCHG	I	2016/03/12	2016/03/14	521668	4724373	ES0L01703104	2016/03/12	ZC TBILL REDEEM 10/03/2017 EUR	ZC TBILL REDEEM 10/03/2017 EUR 1000	CORR					
SCCHG	I	2016/03/12	2016/03/14	521669	4716796	XS1276930218	2016/03/12	2.11% MTN REDEEM 13/03/2017 CHF 1000	8.44% MTN REDEEM 13/03/2017 CHF 1000						
SCCHG	I	2016/03/12	2016/03/14	521670	4719900	XS1378944836	2016/03/12	1.33% MTN REDEEM 11/03/2036 EUR 100000	1.331% MTN REDEEM 11/03/2036 EUR 100000						
SCCHG	I	2016/03/12	2016/03/14	521671	4725794	USP48863AD94	2015/11/13	7% BD REDEEM 12/05/2030 USD 100	7% BD REDEEM 12/05/2030 XCD 100						
SCCHG	I	2016/03/12	2016/03/14	521672	4647897	BRCEPEDBS054	2016/01/12	FR BD REDEEM 14/12/2018 BRL 10000 - Ser 1	FR DB REDEEM 14/12/2018 BRL 10000 - Ser 1						
SCCHG	I	2016/03/12	2016/03/14	521673	4510835	NO0010735319	2015/05/14	FR BD REDEEM 13/02/2018 NOK	FR BD REDEEM 13/02/2018 NOK 500000	CORR					
SCCHG	I	2016/03/12	2016/03/14	521674	4719290	XS1377970386	2016/03/12	1% MTN REDEEM 11/03/2019 CNY 1000000	4.85% MTN REDEEM 11/03/2019 CNY 1000000						
SCCHG	I	2016/03/12	2016/03/14	521675	4712717	XS1373218079	2016/03/03	ZC MTN REDEEM 03/03/2036 USD 20000000	ZC NT REDEEM 03/03/2036 USD 20000000						
SCCHG	I	2016/03/12	2016/03/14	521676	1894443	XS0505078237	2016/03/04	FR CB REDEEM 20/04/2016 EUR 50000 - Ser 1	FR CB REDEEM 20/12/2017 EUR 50000 - Ser 1						
SCCHG	I	2016/03/12	2016/03/14	521677	4525316	FR0012657419	2015/06/04	FR BD REDEEM 10/07/2023 EUR - Ser 50863FR/15.6	FR MTN REDEEM 10/07/2023 EUR - Ser 50863FR/15.6						
SCCHG	I	2016/03/12	2016/03/14	521678	4712717	XS1373218079	2016/03/04	ZC NT REDEEM 03/03/2036 USD 20000000	ZC NT REDEEM 02/03/2036 USD 20000000						
SCCHG	I	2016/03/12	2016/03/14	521679	4716012	XS1374751466	2016/03/12	0.125% MTN REDEEM 11/03/2022 EUR 1000	0.125% MTN REDEEM 11/03/2022 EUR 100000	CORR					
SCCHG	I	2016/03/12	2016/03/14	521680	1894443	XS0505078237	2016/03/05	FR CB REDEEM 20/12/2017 EUR 50000 - Ser 1	FR CB REDEEM 20/12/2017 EUR 100000 - Ser 1	CORR					
SCCHG	I	2016/03/12	2016/03/14	521681	4684302	BRGERUDBS016	2015/12/07	FR DB REDEEM 01/12/2019 BRL	FR DB REDEEM 01/12/2019 BRL 100	CORR					
SCCHG	I	2016/03/12	2016/03/14	521682	4716086	BRVTLADBS000	2016/01/15	FR DB REDEEM 15/12/2028 BRL	FR DB REDEEM 15/12/2028 BRL 1000	CORR					
SCCHG	I	2016/03/12	2016/03/14	521683	4717680	BRBTJCDBS002	2016/02/29	FR DB REDEEM 01/12/2019 BRL	FR DB REDEEM 01/12/2019 BRL 1000	CORR					
SCCHG	I	2016/03/12	2016/03/14	521684	4121919	NO0010691140	2013/10/05	FR CB REDEEM 04/10/2016 NOK 1000000	FR BD REDEEM 04/10/2016 NOK 1000000						
SCCHG	I	2016/03/12	2016/03/14	521685	4720628	AU3EC1666173	2016/03/07	ZC CD REDEEM 07/06/2016 AUD	ZC CD REDEEM 07/06/2016 AUD 5000	CORR					
SCCHG	I	2016/03/12	2016/03/14	521686	4714435	XS1374865555	2016/03/05	2% MTN REDEEM 04/03/2023 EUR 100000	2% NT REDEEM 04/03/2023 EUR 100000						
SCCHG	I	2016/03/12	2016/03/14	521687	4720742		2016/03/03	2.66% CP REDEEM 02/12/2016 CNY	2.66% CP REDEEM 02/12/2016 CNY 100	CORR					
SCCHG	I	2016/03/12	2016/03/14	521688	4525316	FR0012657419	2015/06/01	FR MTN REDEEM 10/07/2023 EUR - Ser 50863FR/15.6	FR MTN REDEEM 10/07/2023 EUR 1000 - Ser 50863FR/15.6	CORR					
SCCHG	I	2016/03/12	2016/03/14	521689	4712952	XS1289436500	2016/03/10	FR MTN REDEEM 16/03/2026 JPY	FR MTN REDEEM 16/03/2026 JPY 50000	CORR					
SCCHG	I	2016/03/12	2016/03/14	521690	4720749		2016/03/03	2.95% CP REDEEM 02/12/2016 CNY	2.95% CP REDEEM 02/12/2016 CNY 100	CORR					
SCCHG	I	2016/03/12	2016/03/14	521691	4724454	BRMGPRDBS035	2016/03/11	FR DB REDEEM 11/03/2018 BRL	FR DB REDEEM 11/03/2018 BRL 10000	CORR					
SCCHG	I	2016/03/12	2016/03/14	521692	4715216	XS1295020025	2016/03/03	3.60% MTN REDEEM 02/03/2017 EUR 1000	7.20% MTN REDEEM 02/03/2017 EUR 1000						
SCCHG	I	2016/03/12	2016/03/14	521693	4718881		2016/03/03	2.80% CP REDEEM 02/06/2016 CNY	2.80% CP REDEEM 02/06/2016 CNY 100	CORR					
SCCHG	I	2016/03/12	2016/03/14	521694	4471032	NO0010732654	2015/03/14	FR BD REDEEM 15/05/2018 NOK	FR BD REDEEM 15/05/2018 NOK 1000000	CORR					
SCCHG	I	2016/03/12	2016/03/14	521695	4707297	INE364K07075	2016/03/04	16% DB REDEEM 25/01/2019 INR 1000000	16% DB REDEEM 28/01/2019 INR 1000000						
SCCHG	I	2016/03/12	2016/03/14	521696	4711063	INE693R07023	2016/03/04	ZC DB REDCONV 29/09/2025 INR 1000000	ZC DB REDCONV 04/02/2023 INR 1000000						
SCCHG	I	2016/03/12	2016/03/14	521697	4718882		2016/03/03	3.20% CP REDEEM 03/06/2016 CNY	3.20% CP REDEEM 03/06/2016 CNY 100	CORR					
SCCHG	I	2016/03/12	2016/03/14	521698	4707309	INE364K07083	2016/03/04	18% DB REDEEM 25/01/2019 INR 1000000	18% DB REDEEM 28/01/2019 INR 1000000						
SCCHG	I	2016/03/12	2016/03/14	521699	4526486	SE0007185384	2015/06/05	1% BD REDEEM 04/06/2020 SEK 1000000 - Ser 112	1% MTN REDEEM 04/06/2020 SEK 1000000 - Ser 112						
SCCHG	I	2016/03/12	2016/03/14	521700	4697211		2016/01/28	4% MTN REDEEM 29/01/2019 CNY	4% MTN REDEEM 29/01/2019 CNY 100	CORR					
SCCHG	I	2016/03/12	2016/03/14	521701	4698099		2016/01/29	3.05% MTN REDEEM 01/02/2019 CNY	3.05% MTN REDEEM 01/02/2019 CNY 100	CORR					
SCCHG	I	2016/03/12	2016/03/14	521702	4393643	SE0006453270	2014/11/27	FR BD REDEEM 26/11/2019 SEK 1000000	FR MTN REDEEM 26/11/2019 SEK 1000000						
SCCHG	I	2016/03/12	2016/03/14	521703	4698082		2016/01/29	4.53% MTN REDEEM 01/02/2021 CNY	4.53% MTN REDEEM 01/02/2021 CNY 100	CORR					
SCCHG	I	2016/03/12	2016/03/14	521704	4393637	SE0006453262	2014/11/27	1.625% BD REDEEM 26/11/2019 SEK 1000000	1.625% MTN REDEEM 26/11/2019 SEK 1000000						
SCCHG	I	2016/03/12	2016/03/14	521705	4698100		2016/01/29	4.37% MTN REDEEM 01/02/2021 CNY	4.37% MTN REDEEM 01/02/2021 CNY 100	CORR					
SCCHG	I	2016/03/14	2016/03/14	521706	4438902	CA06367V3C74	2015/02/18	ZC BD REDEEM 18/02/2020 CAD - Ser 74	ZC BD REDEEM 18/02/2020 CAD 100 - Ser 74	CORR					
SCCHG	I	2016/03/14	2016/03/14	521707	4711368	XS1330325090	2016/03/05	ZC BD CONVERT 12/03/2018 HKD 500000	ZC BD CONVERT 12/03/2018 HKD 1000000	CORR					
SCCHG	I	2016/03/14	2016/03/14	521708	4718013	XS1338514026	2016/03/09	0.51% MTN REDEEM 08/03/2017 EUR 1000	6.12% MTN REDEEM 08/03/2017 EUR 1000						
SCCHG	I	2016/03/14	2016/03/14	521709	3966452	US695127AA86	2013/01/23	3.25% NT CONVERT 01/02/2019 USD - Reg 144A	3.25% NT CONVERT 01/02/2019 USD 1000 - Reg 144A	CORR					
SCCHG	I	2016/03/14	2016/03/14	521710	4718625	XS1377821464	2016/03/11	FR MTN REDEEM 10/03/2020 EUR 1000	FR NT REDEEM 10/03/2020 EUR 1000						
SCCHG	I	2016/03/14	2016/03/14	521711	4724413	MX0FBA0703F6	2016/03/10	FR CD REDEEM 09/03/2017 MXN	FR CD REDEEM 09/03/2017 MXN 100	CORR					
SCCHG	I	2016/03/14	2016/03/14	521712	4712488	XS1373111191	2016/03/02	0.01% MTN REDEEM 01/03/2017 EUR 100 - 137311119	0.01% MTN REDEEM 01/03/2017 EUR 1000 - 137311119	CORR					
SCCHG	I	2016/03/14	2016/03/14	521713	4715202	XS1374649777	2016/03/12	0.01% MTN REDEEM 13/03/2017 USD 10000 - 137464977	0.51666% MTN REDEEM 13/03/2017 USD 10000 - 137464977						
SCCHG	I	2016/03/14	2016/03/14	521714	4715203	XS1374649850	2016/03/12	0.01% MTN REDEEM 13/03/2017 USD 10000 - 137464985	0.91666% MTN REDEEM 13/03/2017 USD 10000 - 137464985						
SCCHG	I	2016/03/14	2016/03/14	521715	4716055	XS1375045611	2016/03/12	0.01% MTN REDEEM 20/03/2017 GBP 50000	3.02333% MTN REDEEM 20/03/2017 GBP 50000						
SCCHG	I	2016/03/14	2016/03/14	521716	4714100	XS1374340088	2016/03/04	ZC MTN CONVERT 07/03/2018 USD 1	ZC MTN CONVERT 07/03/2018 USD 5000	CORR					
SCCHG	I	2016/03/14	2016/03/14	521717	755371	IL0011031262	2007/05/17	4.20% BD REDEEM 21/03/2021 ILS	4.20% BD REDEEM 21/03/2021 ILS 1	CORR					
SCCHG	I	2016/03/14	2016/03/14	521718	4718873		2016/03/03	3.50% CP REDEEM 31/08/2016 CNY	3.50% CP REDEEM 31/08/2016 CNY 100	CORR					
SCCHG	I	2016/03/14	2016/03/14	521719	4718877		2016/03/03	2.64% CP REDEEM 04/08/2016 CNY	2.64% CP REDEEM 04/08/2016 CNY 100	CORR					
SCCHG	I	2016/03/14	2016/03/14	521720	4718871		2016/03/03	3.98% CP REDEEM 30/10/2016 CNY	3.98% CP REDEEM 30/10/2016 CNY 100	CORR					
SCCHG	I	2016/03/14	2016/03/14	521721	4720746		2016/03/03	3.17% CP REDEEM 02/12/2016 CNY	3.17% CP REDEEM 02/12/2016 CNY 100	CORR					
SCCHG	I	2016/03/14	2016/03/14	521722	4035986	CA06367VBX25	2013/06/22	FR NT REDEEM 19/06/2023 USD - Ser 9A	FR NT REDEEM 19/06/2023 USD 100 - Ser 9A	CORR					
SCCHG	I	2016/03/14	2016/03/14	521723	4721590		2016/03/03	6% CP REDEEM 02/12/2016 CNY	6% CP REDEEM 02/12/2016 CNY 100	CORR					
SCCHG	I	2016/03/14	2016/03/14	521724	4718880		2016/03/03	5.20% CP REDEEM 04/03/2017 CNY	5.20% CP REDEEM 04/03/2017 CNY 100	CORR					
SCCHG	I	2016/03/14	2016/03/14	521725	4720764		2016/03/04	2.94% CP REDEEM 07/03/2017 CNY	2.94% CP REDEEM 07/03/2017 CNY 100	CORR					
SCCHG	I	2016/03/14	2016/03/14	521726	4720757		2016/03/04	3.47% CP REDEEM 07/03/2017 CNY	3.47% CP REDEEM 07/03/2017 CNY 100	CORR					
SCCHG	I	2016/03/14	2016/03/14	521727	4689547		2016/01/19	3.14% BD REDEEM 19/01/2021 CNY	3.14% BD REDEEM 19/01/2021 CNY 100	CORR					
SCCHG	I	2016/03/14	2016/03/14	521728	4718865		2016/03/03	2.71% CP REDEEM 02/06/2016 CNY	2.71% CP REDEEM 02/06/2016 CNY 100	CORR					
SCCHG	I	2016/03/14	2016/03/14	521729	4720754		2016/03/03	2.74% CP REDEEM 02/12/2016 CNY	2.74% CP REDEEM 02/12/2016 CNY 100	CORR					
SCCHG	I	2016/03/14	2016/03/14	521730	4689486		2016/01/18	3.10% BD REDEEM 18/01/2021 CNY	3.10% BD REDEEM 18/01/2021 CNY 100	CORR					
SCCHG	I	2016/03/14	2016/03/14	521731	4035987	CA06367VBY08	2013/06/22	FR NT REDEEM 19/06/2023 USD - Ser 9F	FR NT REDEEM 19/06/2023 USD 100 - Ser 9F	CORR					
SCCHG	I	2016/03/14	2016/03/14	521732	4718868		2016/03/03	3.10% CP REDEEM 29/11/2016 CNY	3.10% CP REDEEM 29/11/2016 CNY 100	CORR					
SCCHG	I	2016/03/14	2016/03/14	521733	4721553		2016/03/04	3.97% CP REDEEM 03/12/2016 CNY	3.97% CP REDEEM 03/12/2016 CNY 100	CORR					
SCCHG	I	2016/03/14	2016/03/14	521734	4721564		2016/03/05	2.77% CP REDEEM 03/12/2016 CNY	2.77% CP REDEEM 03/12/2016 CNY 100	CORR					
SCCHG	I	2016/03/14	2016/03/14	521735	4721549		2016/03/04	2.66% CP REDEEM 02/11/2016 CNY	2.66% CP REDEEM 02/11/2016 CNY 100	CORR					
SCCHG	I	2016/03/14	2016/03/14	521736	4721539		2016/03/07	2.80% CP REDEEM 08/03/2017 CNY	2.80% CP REDEEM 08/03/2017 CNY 100	CORR					
SCCHG	I	2016/03/14	2016/03/14	521737	4696262	CND100009DV8	2016/01/28	3.80% BD REDEEM 28/01/2023 CNY	3.80% BD REDEEM 28/01/2023 CNY 100	CORR					
SCCHG	I	2016/03/14	2016/03/14	521738	4722952		2016/03/07	5% CP REDEEM 04/12/2016 CNY	5% CP REDEEM 04/12/2016 CNY 100	CORR					
SCCHG	I	2016/03/14	2016/03/14	521739	4721537		2016/03/07	2.79% CP REDEEM 08/03/2017 CNY	2.79% CP REDEEM 08/03/2017 CNY 100	CORR					
SCCHG	I	2016/03/14	2016/03/14	521740	4695304	CND100009DZ9	2016/01/27	4.80% BD REDEEM 27/01/2026 CNY	4.80% BD REDEEM 27/01/2026 CNY 100	CORR					
SCCHG	I	2016/03/14	2016/03/14	521741	4721535		2016/03/07	4.29% CP REDEEM 08/03/2017 CNY	4.29% CP REDEEM 08/03/2017 CNY 100	CORR					
SCCHG	I	2016/03/14	2016/03/14	521742	4659778	XS1280035921	2016/03/13	FR NT REDEEM 07/03/2022 USD 1000	FR MTN REDEEM 07/03/2022 USD 1000						
SCCHG	I	2016/03/14	2016/03/14	521743	4550447	CA06367XDA69	2015/07/09	ZC BD REDEEM 08/07/2020 CAD 100 - Ser 126	ZC NT REDEEM 08/07/2020 CAD 100 - Ser 126						
SCCHG	I	2016/03/14	2016/03/14	521744	496655	XS0067120294	1996/08/09	ZC BD REDEEM 07/08/2018 NLG 100000	ZC BD REDEEM 07/08/2018 NLG 5000	CORR					
SCCHG	I	2016/03/14	2016/03/14	521745	4707133		2016/02/15	3.90% MTN REDEEM 17/02/2021 CNY	3.90% MTN REDEEM 17/02/2021 CNY 100	CORR					
SCCHG	I	2016/03/14	2016/03/14	521746	496655	XS0067120294	2002/01/01	ZC BD REDEEM 07/08/2018 NLG 5000	ZC BD REDEEM 07/08/2018 EUR 5000						
SCCHG	I	2016/03/14	2016/03/14	521747	496655	XS0067120294	2002/01/02	ZC BD REDEEM 07/08/2018 EUR 5000	ZC BD REDEEM 07/08/2018 EUR 2268.90108	CORR					The Dutch guilder or fl. was the currency of the Netherlands from the 17th century until 2002, when it was replaced by the euro. Replaced by EURO, cash 1 January 2002   EURO = 2.20371
SCCHG	I	2016/03/14	2016/03/14	521748	4275290	AU00000SKSG8	2014/06/26	10% NT CONVERT 30/06/2017 USD 0.35	10% NT CONVERT 30/06/2017 AUD 0.35						
SCCHG	I	2016/03/14	2016/03/14	521749	4718625	XS1377821464	2016/03/12	FR NT REDEEM 10/03/2020 EUR 1000	FR NT REDEEM 10/03/2018 EUR 1000						
SCCHG	I	2016/03/14	2016/03/14	521750	496655	XS0067120294	2002/01/03	ZC BD REDEEM 07/08/2018 EUR 2268.90108	ZC BD REDEEM 07/08/2018 EUR 2268.90108						
SCCHG	I	2016/03/14	2016/03/14	521752	2504759	XS0603183954	2015/02/15	ZC BD REDEEM 22/03/2021 PLN 27000	ZC BD REDEEM 22/03/2021 PLN 27300	CORR					
SCCHG	I	2016/03/14	2016/03/14	521753	4720777		2016/03/04	2.68% CP REDEEM 20/10/2016 CNY	2.68% CP REDEEM 20/10/2016 CNY 100	CORR					
SCCHG	I	2016/03/14	2016/03/14	521754	4721562		2016/03/07	6.60% CP REDEEM 03/12/2016 CNY	6.60% CP REDEEM 03/12/2016 CNY 100	CORR					
SCCHG	I	2016/03/14	2016/03/14	521755	4725383	XS1365520151	2016/03/11	8.875% CTF REDEEM 10/03/2021 USD 200000	1.775% CTF REDEEM 10/03/2021 USD 200000						
SCCHG	I	2016/03/14	2016/03/14	521756	4698785		2016/03/08	3.99% MTN REDEEM 02/02/2021 CNY	3.99% MTN REDEEM 02/02/2021 CNY 100	CORR					
SCCHG	I	2016/03/14	2016/03/14	521757	4689477		2016/01/19	3.33% BD REDEEM 19/01/2021 CNY	3.33% BD REDEEM 19/01/2021 CNY 100	CORR					
SCCHG	I	2016/03/14	2016/03/14	521758	4561651		2015/07/18	12% NT CONVERT 01/07/2018 USD	12% NT CONVERT 01/07/2018 USD 30000	CORR					
SCCHG	I	2016/03/14	2016/03/14	521759	4466755	XS1162846775	2015/03/27	8.21% MTN EXCHANGE 31/03/2016 USD	8.21% MTN EXCHANGE 31/03/2016 USD 10000	CORR					
SCCHG	I	2016/03/14	2016/03/14	521760	4725670	BRVSENDBS000	2016/03/14	FR DB REDEEM 14/09/2017 BRL	FR DB REDEEM 14/09/2017 BRL 10000	CORR					
SCCHG	I	2016/03/14	2016/03/14	521761	4293696	MX94BI000082	2014/06/20	FR BD REDEEM 25/01/2018 MXN 100	FR CD REDEEM 25/01/2018 MXN 100						
SCCHG	I	2016/03/14	2016/03/14	521762	4707140		2016/02/16	5.20% MTN REDEEM 17/02/2021 CNY	5.20% MTN REDEEM 17/02/2021 CNY 100	CORR					
SCCHG	I	2016/03/14	2016/03/14	521763	4724955	KR6021965639	2016/03/13	1.95% BD REDEEM 11/08/2017 KRW	1.95% BD REDEEM 11/08/2017 KRW 10000	CORR					
SCCHG	I	2016/03/14	2016/03/14	521764	4724956	KR6021966637	2016/03/13	1.962% BD REDEEM 11/09/2017 KRW	1.962% BD REDEEM 11/09/2017 KRW 10000	CORR					
SCCHG	I	2016/03/14	2016/03/14	521765	4724957	KR6021967635	2016/03/13	2.381% BD REDEEM 11/03/2021 KRW	2.381% BD REDEEM 11/03/2021 KRW 10000	CORR					
SCCHG	I	2016/03/14	2016/03/14	521766	4723707	KR6029781632	2016/03/13	FR BD REDEEM 10/03/2017 KRW	FR BD REDEEM 10/03/2017 KRW 10000	CORR					
SCCHG	I	2016/03/14	2016/03/14	521767	4689542		2016/01/19	4% BD REDEEM 19/01/2021 CNY	4% BD REDEEM 19/01/2021 CNY 100	CORR					
SCCHG	I	2016/03/14	2016/03/14	521768	4723710	KR6029782630	2016/03/13	1.744% BD REDEEM 09/03/2018 KRW	1.744% BD REDEEM 09/03/2018 KRW 10000	CORR					
SCCHG	I	2016/03/14	2016/03/14	521769	4723715	KR6029783638	2016/03/13	2.515% BD REDEEM 10/03/2026 KRW	2.515% BD REDEEM 10/03/2026 KRW 10000	CORR					
SCCHG	I	2016/03/14	2016/03/14	521771	4724964	KR6065902639	2016/03/13	1.691% BD REDEEM 11/07/2017 KRW	1.691% BD REDEEM 11/07/2017 KRW 10000	CORR					
SCCHG	I	2016/03/14	2016/03/14	521772	4724959	KR6066561632	2016/03/13	1.943% BD REDEEM 11/03/2026 KRW	1.943% BD REDEEM 11/03/2026 KRW 10000	CORR					
SCCHG	I	2016/03/14	2016/03/14	521773	4724960	KR6066562630	2016/03/13	2.013% BD REDEEM 11/03/2031 KRW	2.013% BD REDEEM 11/03/2031 KRW 10000	CORR					
SCCHG	I	2016/03/14	2016/03/14	521774	4724963	KR6169371632	2016/03/13	2.629% BD REDEEM 10/03/2017 KRW	2.629% BD REDEEM 10/03/2017 KRW 10000	CORR					
SCCHG	I	2016/03/14	2016/03/14	521775	4724967	KR381007G639	2016/03/13	1.67% DB REDEEM 11/03/2019 KRW	1.67% DB REDEEM 11/03/2019 KRW 10000	CORR					
SCCHG	I	2016/03/14	2016/03/14	521776	4689489		2016/01/18	3.60% BD REDEEM 18/01/2026 CNY	3.60% BD REDEEM 18/01/2026 CNY 100	CORR					
SCCHG	I	2016/03/14	2016/03/14	521777	4723737	XS1279279449	2016/03/10	4.90% MTN REDEEM 30/03/2019 CNY 100000 - Ser 3726	4.90% MTN REDEEM 30/03/2019 CNY 1000 - Ser 3726	CORR					
SCCHG	I	2016/03/14	2016/03/14	521780	4723746	XS1279279522	2016/03/10	4.90% MTN REDEEM 30/03/2019 CNY 100000 - Ser 3727	4.90% MTN REDEEM 30/03/2019 CNY 1000 - Ser 3727	CORR					
SCCHG	I	2016/03/14	2016/03/14	521784	3588814	INE670L07016	2016/03/04	ZC DB REDEEM 04/03/2016 INR 1000	ZC DB REDEEM 30/07/2016 INR 1000						
SCCHG	I	2016/03/14	2016/03/14	521785	4725227	NO0010759699	2016/03/11	1.48% CD REDEEM 13/10/2016 NOK	1.48% CP REDEEM 13/10/2016 NOK						
SCCHG	I	2016/03/14	2016/03/14	521786	4707704	XS1370925064	2016/03/04	1.90% MTN REDEEM 03/03/2036 JPY 10000000	1.90% MTN REDEEM 03/03/2036 JPY	CORR					
SCCHG	I	2016/03/14	2016/03/14	521787	4510085	IT0005108128	2015/05/19	0.95% NT REDEEM 18/05/2020 EUR 1	0.95% NT REDEEM 18/05/2020 EUR 1000	CORR					
SCCHG	I	2016/03/14	2016/03/14	521788	404645	KZ2C00000040	2006/06/03	FXDFR CB REDEEM 01/06/2025 KZT 1000 - `7th issue`	FXDFR BD REDEEM 01/06/2025 KZT 1000 - `7th issue`						
SCCHG	I	2016/03/14	2016/03/14	521789	4723560	XS1279279100	2016/03/10	4.90% MTN REDEEM 30/03/2019 CNY 100000 - Ser 3723	4.90% MTN REDEEM 30/03/2019 CNY 1000 - Ser 3723	CORR					
SCCHG	I	2016/03/14	2016/03/14	521790	4715389	XS1375040653	2016/03/12	0.01% MTN REDEEM 13/03/2017 USD 1000	3.375% MTN REDEEM 13/03/2017 USD 1000						
SCCHG	I	2016/03/14	2016/03/14	521791	4723709	XS1279279282	2016/03/10	4.90% MTN REDEEM 30/03/2019 CNY 100000 - Ser 3724	4.90% MTN REDEEM 30/03/2019 CNY 1000 - Ser 3724	CORR					
SCCHG	I	2016/03/14	2016/03/14	521792	4723727	XS1279279365	2016/03/10	4.90% MTN REDEEM 30/03/2019 CNY 100000 - Ser 3725	4.90% MTN REDEEM 30/03/2019 CNY 1000 - Ser 3725	CORR					
SCCHG	I	2016/03/14	2016/03/14	521793	4716012	XS1374751466	2016/03/13	0.125% MTN REDEEM 11/03/2022 EUR 100000 - 144A	0.125% CB REDEEM 11/03/2022 EUR 100000 - 144A						
SCCHG	I	2016/03/14	2016/03/14	521794	404645	KZ2C00000040	2006/06/04	FXDFR BD REDEEM 01/06/2025 KZT 1000 - `7th issue`	FXDFR CB REDEEM 01/06/2025 KZT 1000 - `7th issue`						
SCCHG	I	2016/03/14	2016/03/14	521795	404645	KZ2C00000040	2006/06/05	FXDFR CB REDEEM 01/06/2025 KZT 1000 - `7th issue`	FXDFR BD REDEEM 01/06/2025 KZT 1000 - `7th issue`						
SCCHG	I	2016/03/14	2016/03/14	521796	4725881	XS1381467585	2016/03/12	1.51% NT REDEEM 18/03/2036 EUR 10000	1.5125% NT REDEEM 18/03/2036 EUR 10000						
SCCHG	I	2016/03/14	2016/03/14	521797	4716546	CA06367XVD07	2016/03/13	ZC BD REDEEM 23/03/2021 CAD	ZC BD REDEEM 23/03/2021 CAD 100	CORR					
SCCHG	I	2016/03/14	2016/03/14	521798	4716546	CA06367XVD07	2016/03/14	ZC BD REDEEM 23/03/2021 CAD 100	ZC NT REDEEM 23/03/2021 CAD 100						
SCCHG	I	2016/03/14	2016/03/14	521799	4711391	IDJ000007505	2016/03/11	1% BD REDEEM 10/03/2019 IDR 1000	8.30% BD REDEEM 10/03/2019 IDR 1000						
SCCHG	I	2016/03/14	2016/03/14	521800	4718250	CA06367XVG38	2016/03/12	ZC BD REDEEM 23/03/2021 CAD - Ser 213	ZC BD REDEEM 23/03/2021 CAD 100 - Ser 213	CORR					
SCCHG	I	2016/03/14	2016/03/14	521801	4718250	CA06367XVG38	2016/03/13	ZC BD REDEEM 23/03/2021 CAD 100 - Ser 213	ZC NT REDEEM 23/03/2021 CAD 100 - Ser 213						
SCCHG	I	2016/03/14	2016/03/14	521802	4720947	CA064151HX41	2016/03/12	ZC BD REDEEM 28/03/2022 CAD - Ser 26	ZC BD REDEEM 28/03/2022 CAD 100 - Ser 26	CORR					
SCCHG	I	2016/03/14	2016/03/14	521803	4720947	CA064151HX41	2016/03/13	ZC BD REDEEM 28/03/2022 CAD 100 - Ser 26	ZC NT REDEEM 28/03/2022 CAD 100 - Ser 26						
SCCHG	I	2016/03/14	2016/03/14	521804	4725406	XS1379145656	2016/03/14	5.25% BD REDEEM 15/03/2023 USD 200000 - Reg S	5.25% NT REDEEM 15/03/2023 USD 200000 - Reg S						
SCCHG	I	2016/03/14	2016/03/14	521805	4723271	US49989AAB52	2016/03/10	5.25% BD REDEEM 15/03/2023 USD - 144A	5.25% BD REDEEM 15/03/2023 USD 200000 - 144A	CORR					
SCCHG	I	2016/03/14	2016/03/14	521806	4723271	US49989AAB52	2016/03/12	5.25% BD REDEEM 15/03/2023 USD 200000 - 144A	5.25% NT REDEEM 15/03/2023 USD 200000 - 144A						
SCCHG	I	2016/03/14	2016/03/14	521807	4719290	XS1377970386	2016/03/07	4.85% MTN REDEEM 11/03/2019 CNY 1000000	4.85% NT REDEEM 11/03/2019 CNY 1000000						
SCCHG	I	2016/03/14	2016/03/14	521808	4711368	XS1330325090	2016/03/07	ZC BD CONVERT 12/03/2018 HKD 1000000	ZC BD CONVERT 12/03/2018 HKD 500000	CORR					
SCCHG	I	2016/03/14	2016/03/14	521809	4722774	XS1379158550	2016/03/13	0.75% BD REDEEM 15/03/2023 EUR 100000	1.75% BD REDEEM 15/03/2023 EUR 100000						
SCCHG	I	2016/03/14	2016/03/14	521810	4716012	XS1374751466	2016/03/14	0.125% CB REDEEM 11/03/2022 EUR 100000 - 144A	0.125% CB REDEEM 11/03/2021 EUR 100000 - 144A						
SCCHG	I	2016/03/14	2016/03/14	521811	4719321	XS1377970543	2016/03/07	0.75% MTN REDEEM 15/03/2021 EUR 100000	0.75% NT REDEEM 15/03/2021 EUR 100000						
SCCHG	I	2016/03/14	2016/03/14	521812	4717187		2016/03/02	ZC CD REDEEM 03/06/2016 CNY	ZC CD REDEEM 03/06/2016 CNY 100	CORR					
SCCHG	I	2016/03/14	2016/03/14	521813	4697228	CND100009F14	2016/01/29	5.10% BD REDEEM 29/01/2020 CNY	5.10% BD REDEEM 29/01/2020 CNY 100	CORR					
SCCHG	I	2016/03/14	2016/03/14	521814	4689474		2016/01/19	3.50% BD REDEEM 19/01/2026 CNY	3.50% BD REDEEM 19/01/2026 CNY 100	CORR					
SCCHG	I	2016/03/14	2016/03/14	521815	4476873	CA06367V6R17	2016/03/11	SU BD REDEEM 06/10/2016 CAD	SU BD REDEEM 06/04/2022 CAD						
SCCHG	I	2016/03/14	2016/03/14	521816	4717189		2016/03/02	ZC CD REDEEM 03/09/2016 CNY	ZC CD REDEEM 03/09/2016 CNY 100	CORR					
SCCHG	I	2016/03/14	2016/03/14	521817	4717192		2016/03/02	ZC CD REDEEM 03/03/2017 CNY	ZC CD REDEEM 03/03/2017 CNY 100	CORR					
SCCHG	I	2016/03/14	2016/03/14	521818	4476870	CA06367V6Q34	2016/03/09	SU BD REDEEM 02/10/2016 CAD	SU BD REDEEM 02/04/2027 CAD						
SCCHG	I	2016/03/14	2016/03/14	521819	4689548		2016/01/19	3.03% BD REDEEM 19/01/2021 CNY	3.03% BD REDEEM 19/01/2021 CNY 100	CORR					
SCCHG	I	2016/03/14	2016/03/14	521820	4716350		2016/03/01	ZC CD REDEEM 02/04/2016 CNY	ZC CD REDEEM 02/04/2016 CNY 100	CORR					
SCCHG	I	2016/03/14	2016/03/14	521821	4709568	XS1273394145	2016/03/06	ZC MTN REDEEM 04/03/2021 USD 100000 - Ser 0541	ZC MTN REDEEM 04/03/2021 USD 10000 - Ser 0541	CORR					
SCCHG	I	2016/03/14	2016/03/14	521822	4716346		2016/03/01	ZC CD REDEEM 02/06/2016 CNY	ZC CD REDEEM 02/06/2016 CNY 100	CORR					
SCCHG	I	2016/03/14	2016/03/14	521823	4720252	XS1378969239	2016/03/12	4.85% MTN REDEEM 11/03/2019 CNY 1000000	4.85% NT REDEEM 11/03/2019 CNY 1000000						
SCCHG	I	2016/03/14	2016/03/14	521824	4716343		2016/03/01	ZC CD REDEEM 02/09/2016 CNY	ZC CD REDEEM 02/09/2016 CNY 100	CORR					
SCCHG	I	2016/03/14	2016/03/14	521825	4718959		2016/03/04	ZC CD REDEEM 07/06/2016 CNY	ZC CD REDEEM 07/06/2016 CNY 100	CORR					
SCCHG	I	2016/03/14	2016/03/14	521826	4716339		2016/03/01	ZC CD REDEEM 02/12/2016 CNY	ZC CD REDEEM 02/12/2016 CNY 100	CORR					
SCCHG	I	2016/03/14	2016/03/14	521827	4721558		2016/03/04	5% CP REDEEM 03/12/2016 CNY	5% CP REDEEM 03/12/2016 CNY 100	CORR					
SCCHG	I	2016/03/14	2016/03/14	521828	4716337		2016/03/01	ZC CD REDEEM 02/03/2017 CNY	ZC CD REDEEM 02/03/2017 CNY 100	CORR					
SCCHG	I	2016/03/14	2016/03/14	521829	4718993		2016/03/04	ZC CD REDEEM 07/04/2016 CNY	ZC CD REDEEM 07/04/2016 CNY 100	CORR					
SCCHG	I	2016/03/14	2016/03/14	521830	4717250		2016/03/02	ZC CD REDEEM 03/06/2016 CNY	ZC CD REDEEM 03/06/2016 CNY 100	CORR					
SCCHG	I	2016/03/14	2016/03/14	521831	4716039	XS1376268881	2016/03/13	ZC MTN REDEEM 11/03/2031 USD 1000000	ZC NT REDEEM 11/03/2031 USD 1000000						
SCCHG	I	2016/03/14	2016/03/14	521832	4717258		2016/03/02	ZC CD REDEEM 03/06/2016 CNY - 111691163	ZC CD REDEEM 03/06/2016 CNY 100 - 111691163	CORR					
SCCHG	I	2016/03/14	2016/03/14	521833	4491646	CA06367V7H26	2016/01/18	1.50% BD REDEEM 20/04/2016 CAD	1.50% BD REDEEM 20/04/2022 CAD						
SCCHG	I	2016/03/14	2016/03/14	521834	4715831	XS1308290151	2016/03/02	FR MTN REDEEM 28/02/2021 USD 1000	FR MTN REDEEM 28/02/2021 EUR 1000						
SCCHG	I	2016/03/14	2016/03/14	521835	4715016	INE148I07DY3	2016/02/25	9% DB REDEEM 22/02/2019 INR 1000000 - Ser DOA 24/02/16	9% DB REDEEM 24/02/2019 INR 1000000 - Ser DOA 24/02/16						
SCCHG	I	2016/03/14	2016/03/14	521836	4717216		2016/03/02	ZC CD REDEEM 03/09/2016 CNY	ZC CD REDEEM 03/09/2016 CNY 100	CORR					
SCCHG	I	2016/03/14	2016/03/14	521837	4715323	XS1374977947	2016/03/12	FR MTN REDEEM 12/03/2019 CZK 10000	FR MTN REDEEM 12/03/2019 CZK 100000	CORR					
SCCHG	I	2016/03/14	2016/03/14	521838	4718219	XS1377496457	2016/03/11	7.875% BD REDEEM 14/03/2023 IDR 10000000	7.875% NT REDEEM 14/03/2023 IDR 10000000						
SCCHG	I	2016/03/14	2016/03/14	521839	4723030	XS1379107219	2016/03/11	5% MTN REDEEM 15/03/2023 USD 200000	5% NT REDEEM 15/03/2023 USD 200000						
SCCHG	I	2016/03/14	2016/03/14	521840	4284289	US969457BP46	2003/05/29	5.50% BD REDEEM 01/06/2033 USD - 144A	5.50% DB REDEEM 01/06/2033 USD - 144A						
SCCHG	I	2016/03/14	2016/03/14	521841	4709973	XS1316196184	2016/03/03	1.875% MTN REDEEM 09/03/2017 USD 50000	7.50% MTN REDEEM 09/03/2017 USD 50000						
SCCHG	I	2016/03/14	2016/03/14	521842	4722386	XS1379136663	2016/03/10	4.85% MTN REDEEM 14/03/2019 CNY 1000000	4.85% NT REDEEM 14/03/2019 CNY 1000000						
SCCHG	I	2016/03/14	2016/03/14	521843	4725412	XS1381559431	2016/03/12	FR NT REDEEM 16/03/2017 EUR 10000	FR NT REDEEM 16/03/2017 EUR 200000	CORR					
SCCHG	I	2016/03/14	2016/03/14	521845	4190270	SE0005561941	2014/01/15	ZC MTN REDEEM 16/01/2017 SEK 10000 - Ser 1398	ZC BD REDEEM 16/01/2017 SEK 10000 - Ser 1398						
SCCHG	I	2016/03/14	2016/03/14	521846	4709530	XS1371532117	2016/03/02	1.875% BD REDEEM 01/03/2019 USD 200000	3.75% BD REDEEM 01/03/2019 USD 200000						
SCCHG	I	2016/03/14	2016/03/14	521847	4719900	XS1378944836	2016/03/13	1.331% MTN REDEEM 11/03/2036 EUR 100000	1.331% NT REDEEM 11/03/2036 EUR 100000						
SCCHG	I	2016/03/14	2016/03/14	521848	4710140	XS1355065324	2016/03/12	FR MTN REDEEM 20/12/2020 USD 100000 - 135506532	FR MTN REDEEM 20/12/2020 USD 10000 - 135506532	CORR					
SCCHG	I	2016/03/14	2016/03/14	521849	4719900	XS1378944836	2016/03/14	1.331% NT REDEEM 11/03/2036 EUR 100000	1.331% CB REDEEM 11/03/2036 EUR 100000						
SCCHG	I	2016/03/14	2016/03/14	521850	4716309	XS1376343338	2016/03/01	0.01% MTN REDEEM 14/03/2018 EUR 1000	1.25% MTN REDEEM 14/03/2018 EUR 1000						
SCCHG	I	2016/03/14	2016/03/14	521851	1462975	DK0008916224	1997/01/31	2.50% BD REDEEM 01/01/2019 DKK	2.50% BD REDEEM 01/01/2019 DKK 0.01	CORR					
SCCHG	I	2016/03/14	2016/03/14	521852	4251293	TH5435A3T409	2014/04/12	4.17% DB REDEEM 11/04/2017 THB 1000 - Ser 1/2014	4.17% DB REDEEM 11/04/2019 THB 1000 - Ser 1/2014						
EDI_ENDOFFILE
